{
    "prepare_queue": {
        "installed": [],
        "uninstalled": []
    },
    "config_munge": {
        "files": {
            "config.xml": {
                "parents": {
                    "/*": [
                        {
                            "xml": "<preference name=\"Fullscreen\" value=\"true\" />",
                            "count": 1
                        },
                        {
                            "xml": "<feature name=\"HiddenStatusbarOverlay\"><param name=\"ios-package\" value=\"APPHiddenStatusbarOverlay\" /></feature>",
                            "count": 1
                        }
                    ]
                }
            },
            "*-Info.plist": {
                "parents": {
                    "UIStatusBarHidden": [
                        {
                            "xml": "<true />",
                            "count": 1
                        }
                    ],
                    "UIViewControllerBasedStatusBarAppearance": [
                        {
                            "xml": "<false />",
                            "count": 1
                        }
                    ]
                }
            }
        }
    },
    "installed_plugins": {
        "de.appplant.cordova.plugin.hidden-statusbar-overlay": {
            "PACKAGE_NAME": "com.phonegap.helloworld"
        }
    },
    "dependent_plugins": {}
}